module gitlab.com/tosone/systemd_exporter

go 1.14

require (
	github.com/alecthomas/units v0.0.0-20190924025748-f65c72e2690d // indirect
	github.com/coreos/go-systemd v0.0.0-20181031085051-9002847aa142
	github.com/godbus/dbus v0.0.0-20181101234600-2ff6f7ffd60f // indirect
	github.com/golang/protobuf v1.3.5 // indirect
	github.com/konsorten/go-windows-terminal-sequences v1.0.2 // indirect
	github.com/pkg/errors v0.9.1
	github.com/povilasv/prommod v0.0.12
	github.com/prometheus/client_golang v1.5.1
	github.com/prometheus/common v0.9.1
	github.com/prometheus/procfs v0.0.11
	github.com/sirupsen/logrus v1.5.0 // indirect
	golang.org/x/sys v0.0.0-20200323222414-85ca7c5b95cd
	gopkg.in/alecthomas/kingpin.v2 v2.2.6
)
